

[36mWelcome to CakePHP v2.4.1 Console[0m
---------------------------------------------------------------
App : app
Path: /var/www/idelibre-v3/app/
---------------------------------------------------------------
[31;4m2015-04-10 14:27:58 Error: conversionAnnexe
[0mConversion annexe
[31;4m2015-04-10 14:27:58 Error: no id
[0m

[36mWelcome to CakePHP v2.4.1 Console[0m
---------------------------------------------------------------
App : app
Path: /var/www/idelibre-v3/app/
---------------------------------------------------------------
[31;4m2015-04-10 14:34:21 Error: conversionAnnexe
[0mConversion annexe
[31;4mError:[0m Table emailconvocations for model Emailconvocation was not found in datasource default.
#0 /var/www/idelibre-v3/lib/Cake/Model/Model.php(3310): Model->setSource('emailconvocatio...')
#1 /var/www/idelibre-v3/lib/Cake/Model/Model.php(2750): Model->getDataSource()
#2 /var/www/idelibre-v3/lib/Cake/Model/Model.php(2722): Model->_readDataSource('all', Array)
#3 /var/www/idelibre-v3/app/Console/Command/ConversionShell.php(55): Model->find('all')
#4 /var/www/idelibre-v3/lib/Cake/Console/Shell.php(432): ConversionShell->conversionAnnexe()
#5 /var/www/idelibre-v3/lib/Cake/Console/ShellDispatcher.php(210): Shell->runCommand('conversionAnnex...', Array)
#6 /var/www/idelibre-v3/lib/Cake/Console/ShellDispatcher.php(68): ShellDispatcher->dispatch()
#7 /var/www/idelibre-v3/app/Console/cake.php(33): ShellDispatcher::run(Array)
#8 {main}
